%!PS-Adobe-2.0 EPSF-2.0
%%Title: fig.eps
%%Creator: fig2dev Version 3.2 Patchlevel 1
%%CreationDate: Sat Apr  3 18:36:21 1999
%%For: petit@persee (Franck Petit)
%%Orientation: Portrait
%%BoundingBox: 0 0 430 114
%%Pages: 0
%%BeginSetup
%%EndSetup
%%Magnification: 1.0000
%%EndComments
/$F2psDict 200 dict def
$F2psDict begin
$F2psDict /mtrx matrix put
/col-1 {0 setgray} bind def
/col0 {0.000 0.000 0.000 srgb} bind def
/col1 {0.000 0.000 1.000 srgb} bind def
/col2 {0.000 1.000 0.000 srgb} bind def
/col3 {0.000 1.000 1.000 srgb} bind def
/col4 {1.000 0.000 0.000 srgb} bind def
/col5 {1.000 0.000 1.000 srgb} bind def
/col6 {1.000 1.000 0.000 srgb} bind def
/col7 {1.000 1.000 1.000 srgb} bind def
/col8 {0.000 0.000 0.560 srgb} bind def
/col9 {0.000 0.000 0.690 srgb} bind def
/col10 {0.000 0.000 0.820 srgb} bind def
/col11 {0.530 0.810 1.000 srgb} bind def
/col12 {0.000 0.560 0.000 srgb} bind def
/col13 {0.000 0.690 0.000 srgb} bind def
/col14 {0.000 0.820 0.000 srgb} bind def
/col15 {0.000 0.560 0.560 srgb} bind def
/col16 {0.000 0.690 0.690 srgb} bind def
/col17 {0.000 0.820 0.820 srgb} bind def
/col18 {0.560 0.000 0.000 srgb} bind def
/col19 {0.690 0.000 0.000 srgb} bind def
/col20 {0.820 0.000 0.000 srgb} bind def
/col21 {0.560 0.000 0.560 srgb} bind def
/col22 {0.690 0.000 0.690 srgb} bind def
/col23 {0.820 0.000 0.820 srgb} bind def
/col24 {0.500 0.190 0.000 srgb} bind def
/col25 {0.630 0.250 0.000 srgb} bind def
/col26 {0.750 0.380 0.000 srgb} bind def
/col27 {1.000 0.500 0.500 srgb} bind def
/col28 {1.000 0.630 0.630 srgb} bind def
/col29 {1.000 0.750 0.750 srgb} bind def
/col30 {1.000 0.880 0.880 srgb} bind def
/col31 {1.000 0.840 0.000 srgb} bind def

end
save
-14.0 128.0 translate
1 -1 scale

/cp {closepath} bind def
/ef {eofill} bind def
/gr {grestore} bind def
/gs {gsave} bind def
/sa {save} bind def
/rs {restore} bind def
/l {lineto} bind def
/m {moveto} bind def
/rm {rmoveto} bind def
/n {newpath} bind def
/s {stroke} bind def
/sh {show} bind def
/slc {setlinecap} bind def
/slj {setlinejoin} bind def
/slw {setlinewidth} bind def
/srgb {setrgbcolor} bind def
/rot {rotate} bind def
/sc {scale} bind def
/sd {setdash} bind def
/ff {findfont} bind def
/sf {setfont} bind def
/scf {scalefont} bind def
/sw {stringwidth} bind def
/tr {translate} bind def
/tnt {dup dup currentrgbcolor
  4 -2 roll dup 1 exch sub 3 -1 roll mul add
  4 -2 roll dup 1 exch sub 3 -1 roll mul add
  4 -2 roll dup 1 exch sub 3 -1 roll mul add srgb}
  bind def
/shd {dup dup currentrgbcolor 4 -2 roll mul 4 -2 roll mul
  4 -2 roll mul srgb} bind def
 /DrawEllipse {
	/endangle exch def
	/startangle exch def
	/yrad exch def
	/xrad exch def
	/y exch def
	/x exch def
	/savematrix mtrx currentmatrix def
	x y tr xrad yrad sc 0 0 1 startangle endangle arc
	closepath
	savematrix setmatrix
	} def

/$F2psBegin {$F2psDict begin /$F2psEnteredState save def} def
/$F2psEnd {$F2psEnteredState restore end} def
%%EndProlog

$F2psBegin
10 setmiterlimit
n -1000 3126 m -1000 -1000 l 8390 -1000 l 8390 3126 l cp clip
 0.06000 0.06000 sc
% Polyline
2 slj
1 slc
7.500 slw
n 3076 625 m 2926 1075 l 2976 1275 l 2776 1525 l 2626 1725 l 2676 1926 l gs col-1 s gr 
% Polyline
n 2876 1425 m 2876 1625 l gs col-1 s gr 
% Polyline
n 3064 628 m 3164 1028 l 3314 1328 l 3214 1628 l 3314 1928 l gs col-1 s gr 
% Polyline
0 slj
0 slc
 [60] 0 sd
n 3076 625 m 2376 1926 l 3776 1926 l cp gs col-1 s gr  [] 0 sd
% Polyline
 [60] 0 sd
n 4877 625 m 4176 1926 l 5577 1926 l cp gs col-1 s gr  [] 0 sd
% Polyline
2 slj
1 slc
n 4877 625 m 4727 1075 l 4777 1275 l 4576 1525 l 4426 1725 l 4476 1926 l gs col-1 s gr 
% Polyline
n 4877 625 m 4977 1025 l 5127 1325 l 5027 1625 l 5127 1926 l gs col-1 s gr 
% Polyline
n 4677 1425 m 4677 1625 l gs col-1 s gr 
% Polyline
0 slj
0 slc
 [60] 0 sd
n 6677 625 m 5977 1926 l 7378 1926 l cp gs col-1 s gr  [] 0 sd
% Polyline
2 slj
1 slc
n 6677 625 m 6527 1075 l 6577 1275 l 6377 1525 l 6227 1725 l 6277 1926 l gs col-1 s gr 
% Polyline
n 6477 1425 m 6477 1625 l gs col-1 s gr 
% Polyline
n 6677 625 m 6777 1025 l 6927 1325 l 6827 1625 l 6927 1926 l gs col-1 s gr 
% Polyline
0 slj
0 slc
 [60] 0 sd
n 1275 625 m 575 1926 l 1975 1926 l cp gs col-1 s gr  [] 0 sd
% Polyline
2 slj
1 slc
n 1275 625 m 1125 1075 l 1175 1275 l 975 1525 l 825 1725 l 875 1926 l gs col-1 s gr 
% Polyline
n 1075 1425 m 1075 1625 l gs col-1 s gr 
% Polyline
n 1275 625 m 1375 1025 l 1525 1325 l 1425 1625 l 1525 1926 l gs col-1 s gr 
% Polyline
0 slj
15.000 slw
n 2476 1475 m 2479 1476 l 2486 1479 l 2497 1484 l 2514 1491 l 2536 1500 l
 2561 1511 l 2589 1522 l 2617 1533 l 2645 1543 l 2672 1553 l
 2697 1561 l 2719 1567 l 2740 1572 l 2758 1574 l 2776 1575 l
 2793 1574 l 2810 1572 l 2826 1569 l 2842 1565 l 2858 1561 l
 2874 1555 l 2890 1550 l 2906 1544 l 2921 1537 l 2937 1530 l
 2952 1523 l 2967 1515 l 2982 1507 l 2997 1497 l 3012 1487 l
 3026 1475 l 3038 1463 l 3050 1450 l 3062 1435 l 3073 1418 l
 3084 1400 l 3094 1381 l 3104 1361 l 3114 1339 l 3124 1318 l
 3134 1297 l 3144 1276 l 3154 1256 l 3164 1238 l 3176 1221 l
 3187 1206 l 3200 1193 l 3212 1183 l 3226 1175 l 3242 1169 l
 3260 1165 l 3280 1164 l 3302 1165 l 3327 1169 l 3354 1174 l
 3382 1181 l 3411 1189 l 3439 1197 l 3465 1205 l 3487 1212 l
 3504 1218 l 3516 1222 l 3523 1224 l 3526 1225 l gs col-1 s gr 
% Polyline
n 4226 1575 m 4226 1576 l 4229 1580 l 4234 1590 l 4241 1604 l 4249 1620 l
 4257 1635 l 4264 1649 l 4271 1661 l 4278 1672 l 4284 1683 l
 4290 1693 l 4297 1703 l 4304 1714 l 4311 1725 l 4319 1736 l
 4327 1748 l 4336 1759 l 4344 1769 l 4352 1778 l 4360 1787 l
 4368 1794 l 4376 1800 l 4388 1808 l 4399 1814 l 4412 1818 l
 4424 1822 l 4435 1824 l 4445 1825 l 4453 1825 l 4459 1825 l
 4466 1825 l 4471 1825 l 4475 1824 l 4478 1822 l 4481 1820 l
 4484 1817 l 4488 1813 l 4492 1809 l 4497 1803 l 4502 1797 l
 4508 1788 l 4514 1779 l 4520 1769 l 4526 1758 l 4531 1749 l
 4535 1738 l 4540 1726 l 4545 1714 l 4550 1701 l 4554 1689 l
 4558 1677 l 4562 1667 l 4565 1658 l 4568 1650 l 4571 1639 l
 4574 1631 l 4575 1627 l 4576 1625 l 4577 1624 l 4580 1621 l
 4585 1616 l 4593 1608 l 4598 1603 l 4604 1597 l 4611 1591 l
 4620 1584 l 4629 1576 l 4638 1569 l 4648 1563 l 4658 1557 l
 4668 1553 l 4677 1550 l 4685 1549 l 4692 1548 l 4701 1549 l
 4710 1550 l 4719 1553 l 4728 1557 l 4738 1562 l 4747 1568 l
 4757 1575 l 4766 1583 l 4776 1591 l 4785 1600 l 4794 1609 l
 4802 1618 l 4812 1628 l 4822 1639 l 4833 1650 l 4844 1661 l
 4857 1673 l 4869 1684 l 4883 1695 l 4896 1704 l 4910 1713 l
 4923 1721 l 4938 1728 l 4952 1733 l 4965 1737 l 4979 1740 l
 4994 1743 l 5010 1745 l 5027 1746 l 5045 1747 l 5063 1747 l
 5083 1748 l 5103 1748 l 5123 1748 l 5143 1748 l 5164 1747 l
 5184 1748 l 5204 1748 l 5224 1749 l 5244 1750 l 5262 1751 l
 5280 1753 l 5300 1756 l 5321 1759 l 5343 1763 l 5368 1768 l
 5395 1773 l 5424 1779 l 5456 1786 l 5488 1793 l 5520 1800 l
 5551 1807 l 5578 1813 l 5599 1818 l 5614 1822 l 5623 1824 l
 5626 1825 l 5627 1825 l gs col-1 s gr 
/Courier-Bold ff 90.00 scf sf
2325 1350 m
gs 1 -1 sc (Broadcast) dup sw pop 2 div neg 0 rm  col-1 sh gr
/Courier-Bold ff 90.00 scf sf
3975 1650 m
gs 1 -1 sc (Feedback) dup sw pop 2 div neg 0 rm  col-1 sh gr
/Courier-Bold ff 90.00 scf sf
7050 600 m
gs 1 -1 sc (Termination) dup sw pop 2 div neg 0 rm  col-1 sh gr
7.500 slw
% Ellipse
n 3326 1325 71 71 0 360 DrawEllipse gs col7 1.00 shd ef gr gs col-1 s gr

% Ellipse
n 3226 1625 71 71 0 360 DrawEllipse gs col7 1.00 shd ef gr gs col-1 s gr

% Ellipse
n 3326 1926 71 71 0 360 DrawEllipse gs col7 1.00 shd ef gr gs col-1 s gr

% Ellipse
n 2876 1425 71 71 0 360 DrawEllipse gs 0.00 setgray ef gr gs col-1 s gr

% Ellipse
n 2876 1675 71 71 0 360 DrawEllipse gs col7 1.00 shd ef gr gs col-1 s gr

% Ellipse
n 2626 1725 71 71 0 360 DrawEllipse gs col7 1.00 shd ef gr gs col-1 s gr

% Ellipse
n 2676 1926 71 71 0 360 DrawEllipse gs col7 1.00 shd ef gr gs col-1 s gr

% Ellipse
n 2926 1075 71 71 0 360 DrawEllipse gs 0.00 setgray ef gr gs col-1 s gr

% Ellipse
n 3176 1025 71 71 0 360 DrawEllipse gs 0.00 setgray ef gr gs col-1 s gr

% Ellipse
n 2976 1275 71 71 0 360 DrawEllipse gs 0.00 setgray ef gr gs col-1 s gr

% Ellipse
n 315 315 64 64 0 360 DrawEllipse gs 0.00 setgray ef gr gs col-1 s gr

% Ellipse
n 1407 315 64 64 0 360 DrawEllipse gs 0.75 setgray ef gr gs col-1 s gr

% Ellipse
n 2498 315 64 64 0 360 DrawEllipse gs col7 1.00 shd ef gr gs col-1 s gr

% Ellipse
n 5127 1325 71 71 0 360 DrawEllipse gs 0.00 setgray ef gr gs col-1 s gr

% Ellipse
n 5027 1625 71 71 0 360 DrawEllipse gs 0.00 setgray ef gr gs col-1 s gr

% Ellipse
n 4777 1275 71 71 0 360 DrawEllipse gs 0.00 setgray ef gr gs col-1 s gr

% Ellipse
n 4426 1725 71 71 0 360 DrawEllipse gs 0.00 setgray ef gr gs col-1 s gr

% Ellipse
n 4877 625 71 71 0 360 DrawEllipse gs 0.00 setgray ef gr gs col-1 s gr

% Ellipse
n 4727 1075 71 71 0 360 DrawEllipse gs 0.00 setgray ef gr gs col-1 s gr

% Ellipse
n 4677 1425 71 71 0 360 DrawEllipse gs 0.00 setgray ef gr gs col-1 s gr

% Ellipse
n 4476 1926 71 71 0 360 DrawEllipse gs 0.75 setgray ef gr gs col-1 s gr

% Ellipse
n 4677 1675 71 71 0 360 DrawEllipse gs 0.75 setgray ef gr gs col-1 s gr

% Ellipse
n 5127 1926 71 71 0 360 DrawEllipse gs 0.75 setgray ef gr gs col-1 s gr

% Ellipse
n 4977 1025 71 71 0 360 DrawEllipse gs 0.00 setgray ef gr gs col-1 s gr

% Ellipse
n 6827 1625 71 71 0 360 DrawEllipse gs 0.75 setgray ef gr gs col-1 s gr

% Ellipse
n 6927 1926 71 71 0 360 DrawEllipse gs 0.75 setgray ef gr gs col-1 s gr

% Ellipse
n 6577 1275 71 71 0 360 DrawEllipse gs 0.75 setgray ef gr gs col-1 s gr

% Ellipse
n 6477 1675 71 71 0 360 DrawEllipse gs 0.75 setgray ef gr gs col-1 s gr

% Ellipse
n 6277 1926 71 71 0 360 DrawEllipse gs 0.75 setgray ef gr gs col-1 s gr

% Ellipse
n 6777 1025 71 71 0 360 DrawEllipse gs 0.75 setgray ef gr gs col-1 s gr

% Ellipse
n 6527 1075 71 71 0 360 DrawEllipse gs 0.75 setgray ef gr gs col-1 s gr

% Ellipse
n 6927 1325 71 71 0 360 DrawEllipse gs 0.75 setgray ef gr gs col-1 s gr

% Ellipse
n 6477 1425 71 71 0 360 DrawEllipse gs 0.75 setgray ef gr gs col-1 s gr

% Ellipse
n 6227 1725 71 71 0 360 DrawEllipse gs 0.75 setgray ef gr gs col-1 s gr

% Ellipse
n 1125 1075 71 71 0 360 DrawEllipse gs col7 1.00 shd ef gr gs col-1 s gr

% Ellipse
n 1525 1325 71 71 0 360 DrawEllipse gs col7 1.00 shd ef gr gs col-1 s gr

% Ellipse
n 1425 1625 71 71 0 360 DrawEllipse gs col7 1.00 shd ef gr gs col-1 s gr

% Ellipse
n 1525 1926 71 71 0 360 DrawEllipse gs col7 1.00 shd ef gr gs col-1 s gr

% Ellipse
n 1175 1275 71 71 0 360 DrawEllipse gs col7 1.00 shd ef gr gs col-1 s gr

% Ellipse
n 1075 1425 71 71 0 360 DrawEllipse gs col7 1.00 shd ef gr gs col-1 s gr

% Ellipse
n 1075 1675 71 71 0 360 DrawEllipse gs col7 1.00 shd ef gr gs col-1 s gr

% Ellipse
n 825 1725 71 71 0 360 DrawEllipse gs col7 1.00 shd ef gr gs col-1 s gr

% Ellipse
n 875 1926 71 71 0 360 DrawEllipse gs col7 1.00 shd ef gr gs col-1 s gr

% Ellipse
n 1375 1025 71 71 0 360 DrawEllipse gs col7 1.00 shd ef gr gs col-1 s gr

% Ellipse
n 1275 625 71 71 0 360 DrawEllipse gs col7 1.00 shd ef gr gs col-1 s gr

% Ellipse
n 3076 625 71 71 0 360 DrawEllipse gs 0.00 setgray ef gr gs col-1 s gr

% Ellipse
n 6677 625 71 71 0 360 DrawEllipse gs 0.00 setgray ef gr gs col-1 s gr

% Polyline
2 slj
15.000 slw
gs  clippath
2656 1331 m 2576 1425 l 2603 1304 l 2536 1438 l 2589 1465 l cp
clip
n 2776 1025 m 2576 1425 l gs col-1 s gr gr

% arrowhead
0 slc
0 slj
7.500 slw
n 2656 1331 m 2576 1425 l 2603 1304 l 2630 1318 l 2656 1331 l  cp gs 0.00 setgray ef gr  col-1 s
% Polyline
n 275 425 m 3526 425 l gs col-1 s gr 
% Polyline
gs  clippath
4146 1769 m 4226 1675 l 4199 1796 l 4260 1675 l 4206 1648 l cp
clip
n 4126 1876 m 4226 1675 l gs col-1 s gr gr

% arrowhead
n 4146 1769 m 4226 1675 l 4199 1796 l 4173 1782 l 4146 1769 l  cp gs 0.00 setgray ef gr  col-1 s
/Times-Italic ff 135.00 scf sf
3076 2126 m
gs 1 -1 sc (\(ii\)) dup sw pop 2 div neg 0 rm  col-1 sh gr
/Courier-Bold ff 105.00 scf sf
497 361 m
gs 1 -1 sc (Broadcast) col-1 sh gr
/Courier-Bold ff 105.00 scf sf
1589 361 m
gs 1 -1 sc (Feedback) col-1 sh gr
/Courier-Bold ff 105.00 scf sf
2680 361 m
gs 1 -1 sc (Initial State) col-1 sh gr
/Times-Italic ff 135.00 scf sf
4877 2126 m
gs 1 -1 sc (\(iii\)) dup sw pop 2 div neg 0 rm  col-1 sh gr
/Times-Italic ff 135.00 scf sf
6677 2126 m
gs 1 -1 sc (\(iv\)) dup sw pop 2 div neg 0 rm  col-1 sh gr
/Times-Italic ff 135.00 scf sf
1275 2126 m
gs 1 -1 sc (\(i\)) dup sw pop 2 div neg 0 rm  col-1 sh gr
/Courier ff 135.00 scf sf
1175 625 m
gs 1 -1 sc (root) dup sw pop neg 0 rm  col-1 sh gr
/Courier ff 135.00 scf sf
2976 625 m
gs 1 -1 sc (root) dup sw pop neg 0 rm  col-1 sh gr
/Courier ff 135.00 scf sf
4777 625 m
gs 1 -1 sc (root) dup sw pop neg 0 rm  col-1 sh gr
/Courier ff 135.00 scf sf
6577 625 m
gs 1 -1 sc (root) dup sw pop neg 0 rm  col-1 sh gr
$F2psEnd
rs

